<svg version="1.1" id="Layer_1sfjdksfh" xmlns="http://www.w3.org/2000/svg" xmlns:xlink="http://www.w3.org/1999/xlink" x="0px" y="0px"
	 viewBox="0 0 71 16" style="enable-background:new 0 0 71 16;" xml:space="preserve">
<style type="text/css">
	.logo-coughner{fill:#0072BA;}
</style>
<g>
	<g>
		<path class="logo-coughner" d="M60.8444099,10.9120054c0,0.1091404,0.0622635,0.2021666,0.1714058,0.2021666h0.3113098
			c0.1399002,0,0.2021599-0.0776434,0.2021599-0.2021666V6.4738617c0.0468826-0.0930262,0.6387291-1.0745597,1.853199-1.0745597
			c0.4204445,0,0.7317581,0.1560202,0.8101273,0.1867843c0.1084137,0.0468793,0.2021713,0.0314975,0.2490463-0.0776434
			l0.124527-0.3113074c0.0468826-0.1245232-0.0315018-0.233664-0.171402-0.2805433
			c-0.124527-0.0461464-0.4673309-0.1867843-0.9654236-0.1867843c-1.1683197,0-1.7909317,0.7478704-1.9462166,0.9654193
			L61.4208794,5.05723c-0.0161171-0.1091409-0.0937538-0.171402-0.1875191-0.171402h-0.1867828
			c-0.1084099,0-0.2021675,0.0930257-0.2021675,0.2021666V10.9120054z M53.8213196,7.6260648
			c0.078373-1.2767262,0.9969177-2.2729092,2.3673973-2.2729092c1.4012489,0,2.133007,1.0584445,2.133007,2.2729092H53.8213196z
			 M53.1210594,7.984251c0,1.8224297,1.1675873,3.2859402,3.0676575,3.2859402c0.9654198,0,1.9462242-0.4204473,2.2575264-0.7317553
			c0.0937653-0.0937576,0.1091423-0.1867838,0.0622673-0.2490454l-0.1552925-0.2182817
			c-0.078373-0.1091404-0.1406364-0.0937576-0.2805367,0c-0.3735733,0.2490463-1.0123024,0.575736-1.8370819,0.575736
			c-1.4019852,0-2.3674049-1.1207066-2.4296646-2.4596939h4.9677353c0.2336655,0,0.2336655-0.3581872,0.2336655-0.6072326
			c0-1.6510282-1.1837044-2.8501105-2.8186188-2.8501105C54.2886467,4.7298079,53.1210594,6.2094336,53.1210594,7.984251
			 M42.2985497,10.9120054c0,0.1091404,0.0937614,0.2021666,0.2021675,0.2021666h0.2959251
			c0.1091423,0,0.2028999-0.0930262,0.2028999-0.2021666V1.4446006h0.0153809
			c7.3966675,9.7787113,7.5211868,9.8255901,7.5365677,9.8255901h0.2028999c0.124527,0,0.2490463-0.0622606,0.2490463-0.202899
			V0.4169202c0-0.1091408-0.0937538-0.2028995-0.2028961-0.2028995h-0.3113098
			c-0.1091385,0-0.2021675,0.0937586-0.2021675,0.2028995v9.3736458h-0.0153809l-7.4750404-9.7318335h-0.2644272
			c-0.1245232,0-0.2336655,0.077643-0.2336655,0.202166V10.9120054z M33.796566,10.8182468
			c0,0.1560202,0.1406364,0.2959251,0.2959251,0.2959251h1.2928391c0.232933,0,0.3266907-0.1245232,0.3266907-0.2959251v-3.30059
			C35.868042,6.8789272,36.35075,6.4116001,37.066391,6.4116001c0.7478714,0,1.2305794,0.5449705,1.2305794,1.4012494v3.0053973
			c0,0.1560202,0.1245232,0.2959251,0.2959251,0.2959251h1.2613449c0.1552849,0,0.2959251-0.139905,0.2959251-0.2959251V7.8289638
			c0-1.5726509-0.8101311-3.0991559-2.7878494-3.0991559c-0.7317543,0-1.3389854,0.2805429-1.6502953,0.5142069V0.5099453
			c0-0.1552873-0.139904-0.2959246-0.2959251-0.2959246h-1.3236046c-0.1552887,0-0.2959251,0.1406372-0.2959251,0.2959246
			V10.8182468z M28.2845936,13.4654579c0-0.4827099,0.4827099-0.7002583,0.6694946-0.7625198
			c0.3266888-0.0468788,0.6694946-0.0622616,1.0122986-0.0622616c0.9185371,0,1.1368198,0.4827089,1.1368198,0.7625198
			c0,0.5918503-0.5764675,0.981534-1.4481277,0.981534C28.8141823,14.3847303,28.2845936,14.0104284,28.2845936,13.4654579
			 M28.6273994,7.5176568c0-0.6541119,0.4665928-1.121439,1.089941-1.121439c0.6379967,0,1.0738277,0.4673271,1.0738277,1.121439
			c0,0.653379-0.4358311,1.1207061-1.0738277,1.1207061C29.0939922,8.6383629,28.6273994,8.1710358,28.6273994,7.5176568
			 M26.2599964,10.6468449c0,1.1368208,0.9031601,1.5572681,1.1683197,1.6356449v0.0461464
			c-0.1560211,0.0937586-0.9346561,0.5449715-0.9346561,1.4796257c0,0.9969168,0.8723946,2.1330051,3.1768017,2.1330051
			c2.2575283,0,3.4104633-1.2144651,3.4104633-2.6472111c0-1.3697529-1.152935-2.179884-2.5695686-2.179884h-1.9930992
			c-0.342804,0-0.6233463-0.2021666-0.6233463-0.5295887c0-0.3735695,0.3581867-0.5911179,0.5764675-0.5911179
			c0.2490463,0,0.6541138,0.1245232,1.2459621,0.1245232c1.6349125,0,2.6625919-1.2144651,2.6625919-2.4450445
			c0-1.1053238-0.6226139-1.5880337-0.6226139-1.5880337l0.8716602-0.2805429
			c0.1091423-0.0307646,0.171402-0.1560197,0.171402-0.2644281V5.025733c0-0.1714025-0.1245193-0.2959251-0.2959251-0.2959251
			h-2.8339939c-1.5418854,0-2.7094727,1.261344-2.7094727,2.7094727c0,0.9346542,0.4673271,1.4642429,0.4673271,1.4642429
			S26.2599964,9.4323797,26.2599964,10.6468449 M19.2845154,8.2025328c0,1.5880337,0.7002583,3.0676584,2.6310959,3.0676584
			c1.2305794,0,1.8063164-0.6541109,2.0868587-0.9031572l0.1867847,0.5134745
			c0.0468788,0.1245222,0.139904,0.2336636,0.2959251,0.2336636h0.5764675c0.1552868,0,0.2951927-0.139905,0.2951927-0.2959251
			V5.1817532c0-0.1714025-0.1399059-0.2959251-0.2951927-0.2959251h-1.1837006c-0.2490463,0-0.342804,0.0622611-0.342804,0.2959251
			v3.2390614c-0.0930252,0.5603523-0.5918503,1.1675854-1.2459621,1.1675854c-0.715641,0-1.1360874-0.5142069-1.1360874-1.3389883
			V5.1817532c0-0.1714025-0.1406384-0.2959251-0.295927-0.2959251h-1.2774582c-0.1552868,0-0.2951927,0.1245227-0.2951927,0.2959251
			V8.2025328z M13.6319075,7.984251c0-0.8716602,0.6541119-1.5726509,1.4950075-1.5726509
			c0.8255138,0,1.4950066,0.7009907,1.4950066,1.5726509c0,0.8877754-0.6694927,1.6041489-1.4950066,1.6041489
			C14.2860193,9.5883999,13.6319075,8.8720264,13.6319075,7.984251 M11.9347324,7.984251
			c0,1.7909336,1.4327469,3.2859402,3.1921825,3.2859402s3.1921806-1.4950066,3.1921806-3.2859402
			c0-1.7594352-1.432745-3.2544432-3.1921806-3.2544432S11.9347324,6.2248158,11.9347324,7.984251 M2,5.6798444
			c0,3.1145387,2.5073061,5.5903468,5.6211119,5.5903468c1.3858671,0,2.7255878-0.4827089,3.7840319-1.5103893
			c0.1091413-0.1091404,0.1406374-0.311307,0.0153828-0.4204483l-0.9654188-0.9969158
			c-0.0930262-0.0930262-0.2644281-0.1091404-0.3889513,0C9.4120445,8.8720264,8.6180277,9.2302132,7.683373,9.2302132
			c-1.9930992,0-3.4881067-1.6502948-3.4881067-3.5972476c0-1.9616027,1.4796257-3.6280122,3.4727249-3.6280122
			c0.8723931,0,1.7440534,0.3428047,2.3981652,0.9185395c0.1245232,0.1245229,0.2805433,0.1245229,0.3889513,0l0.950036-0.9808018
			c0.1245232-0.1245215,0.1245232-0.3113067-0.0153818-0.4358298c-1.0591774-0.9500359-2.1959982-1.4481279-3.7686501-1.4481279
			C4.5073061,0.0587334,2,2.5653062,2,5.6798444"/>
		<path class="logo-coughner" d="M67.3284607,6.3106637V5.8587184h0.3882217c0.1472321,0,0.23806,0.0908289,0.23806,0.2256069
			c0,0.1230578-0.0908279,0.2263384-0.23806,0.2263384H67.3284607z M67.079422,7.015317
			c0,0.0395546,0.0314941,0.0747142,0.0754395,0.0747142h0.1025543c0.0432129,0,0.0754395-0.0351596,0.0754395-0.0747142V6.5399323
			h0.2929993l0.2219467,0.4951615c0.0117188,0.0234399,0.0395508,0.0549374,0.0710449,0.0549374h0.1347809
			c0.0556717,0,0.0952225-0.0593319,0.0673904-0.1062112c-0.0791092-0.1545544-0.1582184-0.3127723-0.2373276-0.4673271
			c0.110611-0.0278344,0.3200989-0.1347775,0.3200989-0.4321675c0-0.2966576-0.2409897-0.4431558-0.4871063-0.4431558h-0.561821
			c-0.0439453,0-0.0754395,0.0358925-0.0754395,0.0754466V7.015317z M66.390152,6.3699951
			c0-0.657774,0.5310516-1.184433,1.1844254-1.184433c0.6570435,0,1.1844406,0.526659,1.1844406,1.184433
			c0,0.653379-0.5273972,1.184433-1.1844406,1.184433C66.9212036,7.5544281,66.390152,7.0233741,66.390152,6.3699951
			 M66.1528244,6.3699951c0,0.7837625,0.6372604,1.4210267,1.4217529,1.4210267C68.3583374,7.7910218,69,7.1537576,69,6.3699951
			c0-0.7844939-0.6416626-1.4254208-1.4254227-1.4254208C66.7900848,4.9445744,66.1528244,5.5855012,66.1528244,6.3699951"/>
	</g>
</g>
</svg>
