<svg version="1.1" id="menorelax-logo-svg" xmlns="http://www.w3.org/2000/svg" xmlns:xlink="http://www.w3.org/1999/xlink" x="0px" y="0px"
	 viewBox="0 0 346.7 350" style="enable-background:new 0 0 346.7 350;" xml:space="preserve">
<style type="text/css">
	.st0{fill:#FFFFFF;}
	.st1{fill:url(#SVGID_1_);}
	.st2{fill:url(#SVGID_2_);}
	.st3{fill:url(#SVGID_3_);}
	.st4{fill:url(#SVGID_4_);}
	.st5{fill:url(#SVGID_5_);}
	.st6{fill:url(#SVGID_6_);}
	.st7{fill:url(#SVGID_7_);}
	.st8{opacity:0.35;}
	.st9{fill:#1F114D;}
</style>
<g>
	
		<image style="overflow:visible;opacity:0.32;" width="1520" height="1520" xlink:href="/wp-content/themes/otc/images/4686FAB.png"  transform="matrix(0.24 0 0 0.24 -2.8345 -2.8344)">
	</image>
	<g>
		<circle class="st0" cx="156.8" cy="156.8" r="156.8"/>
	</g>
</g>
<g>
	
		<linearGradient id="SVGID_1_" gradientUnits="userSpaceOnUse" x1="-13.8579" y1="-12.7704" x2="173.1373" y2="-12.7704" gradientTransform="matrix(-2.500000e-002 0.9997 -0.9997 -2.500000e-002 237.2844 48.0511)">
		<stop  offset="0" style="stop-color:#B7CD00"/>
		<stop  offset="9.886127e-002" style="stop-color:#AEC90E"/>
		<stop  offset="0.2648" style="stop-color:#93BD21"/>
		<stop  offset="0.476" style="stop-color:#5FAB30"/>
		<stop  offset="0.5843" style="stop-color:#38A136"/>
		<stop  offset="1" style="stop-color:#008E32"/>
	</linearGradient>
	<path class="st1" d="M194.7,144.6l89.6,77.9c9.7-18.7,15.4-39.8,15.9-62.2c1.3-53.2-26.5-100.4-69-126.2l3.8,16.4
		C244,89.1,226.7,126.3,194.7,144.6z"/>
	
		<linearGradient id="SVGID_2_" gradientUnits="userSpaceOnUse" x1="-28.0788" y1="166.0555" x2="79.6172" y2="166.0555" gradientTransform="matrix(-2.500000e-002 0.9997 -0.9997 -2.500000e-002 237.2844 48.0511)">
		<stop  offset="0" style="stop-color:#C4C37F"/>
		<stop  offset="7.859261e-002" style="stop-color:#BCC079"/>
		<stop  offset="0.2088" style="stop-color:#A5B769"/>
		<stop  offset="0.3744" style="stop-color:#7CAA51"/>
		<stop  offset="0.5674" style="stop-color:#279839"/>
		<stop  offset="0.5706" style="stop-color:#249839"/>
		<stop  offset="1" style="stop-color:#83BB26"/>
	</linearGradient>
	<path class="st2" d="M115.1,77l8.5-59.9c-51.9,12.3-93.1,53-105.9,105.1l5-11.9C40.3,68.6,79.6,55.5,115.1,77z"/>
	
		<linearGradient id="SVGID_3_" gradientUnits="userSpaceOnUse" x1="54.3125" y1="-18.362" x2="-13.8428" y2="185.0858" gradientTransform="matrix(-2.500000e-002 0.9997 -0.9997 -2.500000e-002 237.2844 48.0511)">
		<stop  offset="0" style="stop-color:#9DC41A"/>
		<stop  offset="0.2034" style="stop-color:#93C020"/>
		<stop  offset="0.5373" style="stop-color:#76B52B"/>
		<stop  offset="0.5843" style="stop-color:#70B42C"/>
		<stop  offset="1" style="stop-color:#00644D"/>
	</linearGradient>
	<path class="st3" d="M123.6,17.1L115.1,77c4.2,2.5,8.3,5.5,12.3,9l67.4,58.5c32-18.3,49.3-55.4,40.3-94.1L231.2,34
		c-20.7-12.6-44.8-20.1-70.8-20.8C147.7,13,135.4,14.3,123.6,17.1z"/>
	
		<linearGradient id="SVGID_4_" gradientUnits="userSpaceOnUse" x1="282.6942" y1="174.6776" x2="-61.1221" y2="-16.5577" gradientTransform="matrix(-2.500000e-002 0.9997 -0.9997 -2.500000e-002 237.2844 48.0511)">
		<stop  offset="0" style="stop-color:#3696B4"/>
		<stop  offset="0.1" style="stop-color:#3190B2"/>
		<stop  offset="0.2663" style="stop-color:#2381AD"/>
		<stop  offset="0.4771" style="stop-color:#0E69A3"/>
		<stop  offset="0.5843" style="stop-color:#075B9C"/>
		<stop  offset="1" style="stop-color:#044884"/>
	</linearGradient>
	<path class="st4" d="M102.1,168.3l0.4-2.6l-87,14.8c11.1,66.4,68,117.7,137.8,119.5c16.8,0.4,32.9-2.1,48-7l-24.6-7.5
		C128.4,270.8,94.9,218.3,102.1,168.3z"/>
	
		<linearGradient id="SVGID_5_" gradientUnits="userSpaceOnUse" x1="205.9997" y1="120.0041" x2="96.1408" y2="-79.37" gradientTransform="matrix(-2.500000e-002 0.9997 -0.9997 -2.500000e-002 237.2844 48.0511)">
		<stop  offset="0" style="stop-color:#3696B4"/>
		<stop  offset="0.1" style="stop-color:#3190B2"/>
		<stop  offset="0.2663" style="stop-color:#2381AD"/>
		<stop  offset="0.4771" style="stop-color:#0E69A3"/>
		<stop  offset="0.5843" style="stop-color:#075B9C"/>
		<stop  offset="1" style="stop-color:#044884"/>
	</linearGradient>
	<path class="st5" d="M165.4,155l-63,10.7l-0.4,2.6c-7.1,50.1,26.3,102.5,74.7,117.2l24.6,7.5c35.9-11.7,65.8-37.3,83-70.5
		l-89.6-77.9C185.9,149.6,176.1,153.2,165.4,155z"/>
	
		<linearGradient id="SVGID_6_" gradientUnits="userSpaceOnUse" x1="41.22" y1="168.8763" x2="316.8892" y2="193.2897" gradientTransform="matrix(-2.500000e-002 0.9997 -0.9997 -2.500000e-002 237.2844 48.0511)">
		<stop  offset="0" style="stop-color:#3696B4"/>
		<stop  offset="0.1" style="stop-color:#3190B2"/>
		<stop  offset="0.2663" style="stop-color:#2381AD"/>
		<stop  offset="0.4771" style="stop-color:#0E69A3"/>
		<stop  offset="0.5843" style="stop-color:#075B9C"/>
		<stop  offset="1" style="stop-color:#044884"/>
	</linearGradient>
	<path class="st6" d="M115.1,77c-35.4-21.5-74.8-8.4-92.4,33.3l-5,11.9c-2.4,9.9-3.9,20.2-4.1,30.8c-0.2,9.4,0.5,18.5,2,27.4
		l87-14.8L115.1,77z"/>
	
		<linearGradient id="SVGID_7_" gradientUnits="userSpaceOnUse" x1="111.6523" y1="95.8973" x2="-36.8583" y2="48.0879" gradientTransform="matrix(-2.500000e-002 0.9997 -0.9997 -2.500000e-002 237.2844 48.0511)">
		<stop  offset="0" style="stop-color:#3696B4"/>
		<stop  offset="0.1" style="stop-color:#3190B2"/>
		<stop  offset="0.2663" style="stop-color:#2381AD"/>
		<stop  offset="0.4771" style="stop-color:#0E69A3"/>
		<stop  offset="0.5843" style="stop-color:#075B9C"/>
		<stop  offset="1" style="stop-color:#044884"/>
	</linearGradient>
	<path class="st7" d="M165.4,155c10.7-1.8,20.5-5.4,29.3-10.4L127.3,86c-4-3.5-8.1-6.4-12.3-9l-12.6,88.6L165.4,155z"/>
</g>
<g>
	<g class="st8">
		<path class="st9" d="M47.2,101.6c0.1-0.8,0.9-1.4,1.6-1.4h1.4c0.5,0,1.3,0.4,1.5,0.9l21,39.1H73l21-39.1c0.3-0.5,1.1-0.9,1.5-0.9
			H97c0.7,0,1.5,0.6,1.6,1.4l10.2,60.8c0.2,1.2-0.6,2-1.7,2H96.4c-0.8,0-1.6-0.7-1.7-1.4l-4.1-28h-0.2l-15.2,29.3
			c-0.3,0.5-1.1,1-1.5,1h-1.6c-0.5,0-1.3-0.5-1.5-1L55.2,135h-0.2l-4,28c-0.1,0.7-0.8,1.4-1.7,1.4H38.7c-1.1,0-1.9-0.8-1.7-2
			L47.2,101.6z"/>
		<path class="st9" d="M115,102.8c0-0.9,0.7-1.7,1.7-1.7h37.5c1,0,1.7,0.8,1.7,1.7v9.9c0,0.9-0.7,1.7-1.7,1.7h-25.1v11.2h20.6
			c0.9,0,1.7,0.8,1.7,1.7v9.9c0,1-0.8,1.7-1.7,1.7h-20.6v12.2h25.1c1,0,1.7,0.8,1.7,1.7v9.9c0,0.9-0.7,1.7-1.7,1.7h-37.5
			c-1,0-1.7-0.8-1.7-1.7V102.8z"/>
		<path class="st9" d="M162.5,101.8c0-0.9,0.8-1.6,1.7-1.6h2.3l36.1,34.8h0.1v-32.1c0-0.9,0.7-1.7,1.7-1.7h10.9
			c0.9,0,1.7,0.8,1.7,1.7v60.9c0,0.9-0.8,1.6-1.7,1.6h-1.4c-0.3,0-1-0.3-1.2-0.5L176.9,129h-0.1v33.8c0,0.9-0.7,1.7-1.7,1.7h-10.8
			c-0.9,0-1.7-0.8-1.7-1.7L162.5,101.8z"/>
		<path class="st9" d="M255.1,100.2c18.1,0,32.6,14.6,32.6,32.7c0,18.1-14.5,32.5-32.6,32.5c-18.1,0-32.5-14.4-32.5-32.5
			C222.6,114.7,237,100.2,255.1,100.2z M255.1,150.9c10,0,18.1-8.1,18.1-18c0-10-8.1-18.2-18.1-18.2c-9.9,0-18,8.2-18,18.2
			C237,142.7,245.2,150.9,255.1,150.9z"/>
	</g>
	<g class="st8">
		<path class="st9" d="M78.7,173c1.1-0.6,2.6-1.4,4.6-2.3c2-0.9,4.3-1.8,6.8-2.8c2.6-1,5.3-1.9,8.3-2.9c3-1,5.9-1.8,8.8-2.6
			c2.9-0.8,5.7-1.4,8.4-1.9c2.7-0.5,5.1-0.7,7.2-0.7c2.9,0,5.3,0.5,7.3,1.6c2,1,3.5,2.3,4.8,3.9c1.2,1.6,2.1,3.3,2.6,5.3
			c0.5,1.9,0.8,3.8,0.8,5.6c0,1.5-0.6,3.1-1.8,4.9c-1.2,1.8-2.8,3.6-4.8,5.4c-2,1.8-4.2,3.5-6.7,5.2c-2.5,1.7-5.1,3.2-7.6,4.5
			c-2.6,1.3-5.1,2.4-7.5,3.2c-2.4,0.8-4.6,1.3-6.4,1.4c0.7,2.3,1.7,4.8,2.7,7.5c1.1,2.7,2.3,5.5,3.6,8.2c1.4,2.8,2.9,5.4,4.6,8
			c1.7,2.6,3.5,4.9,5.5,6.9c2,2,4.2,3.6,6.5,4.8c2.3,1.2,4.8,1.8,7.4,1.8c2,0,3.6,0,5-0.1c1.3-0.1,2.5-0.3,3.5-0.5
			c1-0.3,2-0.7,2.9-1.2c0.9-0.5,2-1.2,3.1-2.1c0.6-0.5,1-0.7,1.3-0.7c0.2,0,0.3,0.1,0.3,0.4c0,0.3-0.2,0.6-0.5,1.1
			c-0.3,0.4-0.6,0.9-1,1.3c-0.7,0.7-1.6,1.5-2.7,2.3c-1.1,0.8-2.4,1.6-3.8,2.2c-1.4,0.7-3,1.3-4.7,1.7c-1.7,0.5-3.6,0.7-5.5,0.7
			c-4.4,0-8.3-1-11.7-3.1c-3.3-2-6.3-4.9-8.8-8.4c-2.5-3.6-4.6-7.8-6.3-12.6c-1.7-4.8-3.2-10.1-4.4-15.7c-0.6,1.3-1.2,2.8-2,4.5
			c-0.7,1.7-1.5,3.4-2.2,5.1c-0.7,1.7-1.4,3.3-2.1,4.9c-0.6,1.6-1.1,2.9-1.4,4.1c-0.3,1.1-0.4,2-0.3,2.5c0.1,0.6,0.6,0.7,1.3,0.4
			c0.7-0.3,1.1-0.3,1.3,0.1c0.2,0.4,0.1,0.9-0.2,1.6c-0.3,0.7-0.8,1.4-1.5,2.3c-0.7,0.8-1.6,1.6-2.7,2.2c-0.4,0.3-0.9,0.5-1.6,0.8
			c-0.7,0.2-1.3,0.4-1.9,0.5c-0.6,0.1-1.1,0-1.6-0.2c-0.4-0.2-0.7-0.6-0.7-1.2c0-1.6,0.5-3.8,1.4-6.7c0.9-2.9,2.1-6.1,3.6-9.7
			c1.5-3.6,3-7.3,4.8-11.2c1.7-3.9,3.4-7.7,4.9-11.3c1.6-3.7,2.9-7,4.1-10c1.2-3,2-5.5,2.4-7.3c0.2-0.9,0.6-1.3,1.3-1.1
			c0.7,0.1,1.4,0.5,2.2,1.2c0.8,0.6,1.4,1.4,2,2.3c0.6,0.9,0.8,1.6,0.7,2.2c-0.5,2.4-1.6,5.2-3.3,8.5c-1.7,3.2-3.7,6.4-5.9,9.6
			c2.3-0.5,4.7-1.3,7.1-2.6c2.4-1.2,4.7-2.7,6.9-4.3c2.2-1.7,4.3-3.4,6.2-5.3c1.9-1.9,3.6-3.7,5.1-5.5c1.4-1.8,2.6-3.5,3.4-5.1
			c0.8-1.6,1.3-2.9,1.3-3.9c0-0.5-0.2-1-0.5-1.5c-0.3-0.5-0.9-0.9-1.8-1.3c-0.9-0.4-2-0.7-3.5-0.9c-1.5-0.2-3.4-0.4-5.7-0.4
			c-1.4,0-3.1,0.2-5.2,0.6c-2,0.4-4.2,0.9-6.5,1.6c-2.3,0.7-4.7,1.5-7.2,2.3c-2.4,0.9-4.8,1.7-7,2.6c-2.2,0.9-4.2,1.8-6,2.7
			c-1.8,0.9-3.2,1.7-4.1,2.4c-0.4,0.3-0.9,0.4-1.5,0.3c-0.7-0.1-1.3-0.2-2-0.5c-0.7-0.3-1.4-0.7-2-1.1c-0.7-0.5-1.2-0.9-1.6-1.5
			c-0.4-0.5-0.6-1-0.6-1.5C77.7,173.9,78,173.4,78.7,173z"/>
		<path class="st9" d="M127.2,219.3c0-3.9,0.6-7.4,1.7-10.7c1.1-3.3,2.5-6,4.3-8.4c1.7-2.3,3.6-4.1,5.7-5.4c2.1-1.3,4.1-1.9,5.9-1.9
			c1.5,0,2.9,0.4,4.4,1.1c1.5,0.8,2.7,1.7,3.9,2.8c1.1,1.1,2,2.3,2.7,3.7c0.7,1.3,1.1,2.6,1.1,3.8c0,1.4-0.5,2.8-1.5,4.4
			c-1,1.6-2.3,3-4.1,4.4c-1.8,1.4-3.9,2.5-6.3,3.5c-2.4,0.9-5.1,1.5-8.1,1.6c0,0.4-0.1,0.8-0.1,1.2c0,0.4,0,0.8,0,1.3
			c0,2.6,0.5,4.6,1.6,5.9c1,1.3,2.3,2,3.9,2c2.7,0,5.2-0.7,7.5-2c2.3-1.3,4.2-3,5.7-5c0.5-0.7,0.9-1,1.1-0.9
			c0.2,0.1,0.3,0.3,0.2,0.8c0,0.5-0.2,1-0.4,1.7c-0.2,0.7-0.5,1.2-0.9,1.7c-0.5,0.8-1.3,1.6-2.2,2.4c-0.9,0.9-2,1.7-3.2,2.4
			c-1.2,0.7-2.5,1.3-3.9,1.9c-1.4,0.5-2.9,0.8-4.4,0.8c-2.2,0-4.1-0.4-5.9-1.2c-1.8-0.8-3.3-1.8-4.6-3.1c-1.3-1.3-2.3-2.7-3-4.2
			C127.6,222.2,127.2,220.7,127.2,219.3z M148.9,198c-0.5-0.3-1.4-0.1-2.5,0.5c-1.1,0.6-2.3,1.7-3.5,3.2c-1.2,1.5-2.4,3.4-3.4,5.7
			c-1.1,2.3-1.8,5.1-2.3,8.2c1.2-0.5,2.4-1.2,3.5-2.2c1.2-1,2.2-2.1,3.2-3.3c1-1.2,1.9-2.5,2.6-3.8c0.8-1.3,1.4-2.6,1.8-3.7
			c0.5-1.1,0.7-2.1,0.8-2.9C149.4,198.7,149.2,198.2,148.9,198z"/>
		<path class="st9" d="M170.3,176.8c0-0.5,0.2-1,0.7-1.6c0.5-0.5,1-1.1,1.8-1.6c0.7-0.5,1.5-0.9,2.2-1.3c0.8-0.4,1.5-0.6,2.2-0.6
			c0.7,0,1.3,0.1,1.8,0.4c0.5,0.3,0.7,0.8,0.7,1.6c0,1.3-0.2,3.1-0.7,5.2c-0.4,2.1-1,4.5-1.7,7.1c-0.7,2.6-1.5,5.3-2.4,8.2
			c-0.9,2.9-1.8,5.7-2.6,8.6c-0.9,2.8-1.7,5.5-2.4,8.1c-0.7,2.6-1.4,4.8-1.8,6.7c-0.5,1.9-0.7,3.5-0.8,4.6c-0.1,1.1,0.1,1.7,0.6,1.7
			c0.6,0,1.1-0.1,1.5-0.2c0.4-0.1,0.6-0.2,0.8-0.4c0.2-0.1,0.4-0.3,0.5-0.4c0.1-0.1,0.3-0.2,0.5-0.2c0.5,0,0.8,0.3,0.7,1
			c0,0.6-0.3,1.4-0.8,2.1c-0.5,0.8-1.1,1.5-1.8,2.1c-0.7,0.6-1.5,1-2.4,1c-0.6,0-1.3-0.2-2.1-0.7c-0.8-0.5-1.6-1.1-2.4-1.8
			c-0.7-0.7-1.4-1.6-1.9-2.5c-0.6-0.9-0.8-1.9-0.8-2.8c0-1.8,0.3-3.9,0.8-6.2c0.5-2.4,1.2-4.9,1.9-7.5c0.8-2.6,1.6-5.4,2.5-8.2
			c0.9-2.8,1.8-5.5,2.5-8.2c0.8-2.7,1.4-5.3,1.9-7.7C170,181,170.3,178.8,170.3,176.8z"/>
		<path class="st9" d="M179.4,197.9c0.9-1.5,2.1-2.7,3.5-3.8c1.4-1.1,2.9-2,4.5-2.7c1.6-0.7,3.2-1.3,4.8-1.7
			c1.6-0.4,3.1-0.6,4.6-0.6c1.2,0,2.3,0.3,3.5,0.8c1.1,0.6,2.1,1.3,3,2.3c0.9,1,1.5,2.1,2,3.4c0.5,1.3,0.8,2.8,0.8,4.3
			c0,2.8-0.3,5.4-0.9,7.8c-0.6,2.4-1.2,4.7-1.8,6.9c-0.7,2.2-1.3,4.3-1.8,6.3c-0.6,2-0.9,4.1-0.9,6.1c0,0.6-0.4,1-1.2,1.1
			c-0.8,0.1-1.6-0.1-2.5-0.6c-0.9-0.5-1.8-1.2-2.5-2.1c-0.8-1-1.2-2.2-1.2-3.6c0-0.1,0-0.3,0-0.5c0-0.2,0.1-0.4,0.1-0.6
			c-1.2,1.3-2.5,2.3-4,3.2c-1.5,0.8-3.2,1.3-5.2,1.3c-1.5,0-2.9-0.3-4.2-1c-1.2-0.6-2.3-1.4-3.1-2.3c-0.9-0.9-1.5-1.8-1.9-2.8
			c-0.4-1-0.7-1.9-0.7-2.6c0-1.4,0.6-2.7,1.8-3.9c1.2-1.2,2.9-2.2,5-3c2.1-0.8,4.6-1.4,7.4-1.8c2.8-0.4,5.8-0.5,8.9-0.3
			c0.5-1.8,1-3.6,1.4-5.3c0.4-1.7,0.7-3.3,0.8-4.7c0.1-1.4,0.1-2.5-0.1-3.3c-0.2-0.8-0.7-1.3-1.5-1.3c-1.5,0-3.2,0.8-5.3,2.3
			c-2.1,1.5-4.1,3.8-6.1,6.7c-0.5,0.8-1.3,1.1-2.2,1.1c-1-0.1-1.9-0.4-2.7-0.9c-0.9-0.5-1.5-1.2-2-2
			C179.1,199.2,179,198.5,179.4,197.9z M186,221.5c1.6,0,3.3-0.9,5.2-2.6c1.8-1.7,3.5-4.2,4.9-7.4c0-0.2,0.1-0.3,0.1-0.5
			c0-0.2,0.1-0.3,0.2-0.6c-2.1,0.2-3.9,0.6-5.6,1.4c-1.7,0.7-3.1,1.6-4.3,2.5c-1.2,0.9-2.1,1.8-2.7,2.8c-0.6,0.9-1,1.7-1,2.2
			c0,0.6,0.3,1.1,0.8,1.6C184.2,221.3,185,221.5,186,221.5z"/>
		<path class="st9" d="M207.3,228.6c0.7-1.5,1.5-3,2.4-4.7c1-1.7,2.1-3.4,3.4-5.2c-1.5-1.8-2.8-3.8-3.7-5.8c-0.9-2-1.4-4.1-1.4-6.2
			c0-1,0.4-1.9,1.3-2.7c0.9-0.8,1.8-1.5,2.8-1.9c1-0.5,1.9-0.6,2.8-0.6c0.9,0.1,1.3,0.6,1.3,1.4c0,1.6,0.2,3.1,0.5,4.7
			c0.4,1.5,0.8,3,1.5,4.5c1.9-2.4,3.9-4.8,6-7.1c2.1-2.3,4.2-4.5,6.2-6.5c2-2,4-3.9,5.9-5.5c1.9-1.7,3.6-3,5.2-4
			c0.7-0.4,1.2-0.7,1.5-0.7c0.3,0,0.4,0.1,0.3,0.4c-0.1,0.3-0.3,0.7-0.6,1.3c-0.4,0.6-0.8,1.1-1.4,1.7c-1.2,1.3-2.6,2.9-4.1,4.8
			c-1.6,1.9-3.2,4.1-4.9,6.5c-1.7,2.4-3.5,4.9-5.3,7.6c-1.8,2.7-3.5,5.3-5.1,8c2,2.8,4.2,5.2,6.6,7.2c2.4,2,4.6,3.5,6.6,4.5
			c0.6,0.2,0.9,0.4,0.9,0.6c0,0.2-0.1,0.3-0.3,0.4c-0.3,0.1-0.7,0.2-1.2,0.2c-0.5,0-1,0-1.6-0.1c-1.8-0.2-4-1-6.6-2.2
			c-2.6-1.3-5.2-3-7.8-5c-1.9,3.5-3.5,6.6-4.6,9.4c-0.4,1.1-1.1,1.6-2,1.6c-0.9-0.1-1.7-0.4-2.5-1.1c-0.8-0.7-1.5-1.5-1.9-2.5
			C207,230.3,206.9,229.4,207.3,228.6z"/>
	</g>
</g>
<g>
	<path class="st0" d="M45.7,100.1c0.1-0.8,0.9-1.4,1.6-1.4h1.4c0.5,0,1.3,0.4,1.5,0.9l21,39.1h0.2l21-39.1c0.3-0.5,1.1-0.9,1.5-0.9
		h1.4c0.7,0,1.5,0.6,1.6,1.4l10.2,60.8c0.2,1.2-0.6,2-1.7,2H94.9c-0.8,0-1.6-0.7-1.7-1.4l-4.1-28H89l-15.2,29.3
		c-0.3,0.5-1.1,1-1.5,1h-1.6c-0.5,0-1.3-0.5-1.5-1l-15.3-29.3h-0.2l-4,28c-0.1,0.7-0.8,1.4-1.7,1.4H37.2c-1.1,0-1.9-0.8-1.7-2
		L45.7,100.1z"/>
	<path class="st0" d="M113.5,101.3c0-0.9,0.7-1.7,1.7-1.7h37.5c1,0,1.7,0.8,1.7,1.7v9.9c0,0.9-0.7,1.7-1.7,1.7h-25.1v11.2h20.6
		c0.9,0,1.7,0.8,1.7,1.7v9.9c0,1-0.8,1.7-1.7,1.7h-20.6v12.2h25.1c1,0,1.7,0.8,1.7,1.7v9.9c0,0.9-0.7,1.7-1.7,1.7h-37.5
		c-1,0-1.7-0.8-1.7-1.7V101.3z"/>
	<path class="st0" d="M161,100.3c0-0.9,0.8-1.6,1.7-1.6h2.3l36.1,34.8h0.1v-32.1c0-0.9,0.7-1.7,1.7-1.7h10.9c0.9,0,1.7,0.8,1.7,1.7
		v60.9c0,0.9-0.8,1.6-1.7,1.6h-1.4c-0.3,0-1-0.3-1.2-0.5l-35.8-35.9h-0.1v33.8c0,0.9-0.7,1.7-1.7,1.7h-10.8c-0.9,0-1.7-0.8-1.7-1.7
		L161,100.3z"/>
	<path class="st0" d="M253.6,98.7c18.1,0,32.6,14.6,32.6,32.7c0,18.1-14.5,32.5-32.6,32.5c-18.1,0-32.5-14.4-32.5-32.5
		C221.1,113.2,235.5,98.7,253.6,98.7z M253.6,149.4c10,0,18.1-8.1,18.1-18c0-10-8.1-18.2-18.1-18.2c-9.9,0-18,8.2-18,18.2
		C235.5,141.2,243.7,149.4,253.6,149.4z"/>
</g>
<g>
	<path class="st0" d="M77.2,171.5c1.1-0.6,2.6-1.4,4.6-2.3c2-0.9,4.3-1.8,6.8-2.8c2.6-1,5.3-1.9,8.3-2.9c3-1,5.9-1.8,8.8-2.6
		c2.9-0.8,5.7-1.4,8.4-1.9c2.7-0.5,5.1-0.7,7.2-0.7c2.9,0,5.3,0.5,7.3,1.6c2,1,3.5,2.3,4.8,3.9c1.2,1.6,2.1,3.3,2.6,5.3
		c0.5,1.9,0.8,3.8,0.8,5.6c0,1.5-0.6,3.1-1.8,4.9c-1.2,1.8-2.8,3.6-4.8,5.4c-2,1.8-4.2,3.5-6.7,5.2c-2.5,1.7-5.1,3.2-7.6,4.5
		c-2.6,1.3-5.1,2.4-7.5,3.2c-2.4,0.8-4.6,1.3-6.4,1.4c0.7,2.3,1.7,4.8,2.7,7.5c1.1,2.7,2.3,5.5,3.6,8.2c1.4,2.8,2.9,5.4,4.6,8
		c1.7,2.6,3.5,4.9,5.5,6.9c2,2,4.2,3.6,6.5,4.8c2.3,1.2,4.8,1.8,7.4,1.8c2,0,3.6,0,5-0.1c1.3-0.1,2.5-0.3,3.5-0.5
		c1-0.3,2-0.7,2.9-1.2c0.9-0.5,2-1.2,3.1-2.1c0.6-0.5,1-0.7,1.3-0.7c0.2,0,0.3,0.1,0.3,0.4c0,0.3-0.2,0.6-0.5,1.1
		c-0.3,0.4-0.6,0.9-1,1.3c-0.7,0.7-1.6,1.5-2.7,2.3c-1.1,0.8-2.4,1.6-3.8,2.2c-1.4,0.7-3,1.3-4.7,1.7c-1.7,0.5-3.6,0.7-5.5,0.7
		c-4.4,0-8.3-1-11.7-3.1c-3.3-2-6.3-4.9-8.8-8.4c-2.5-3.6-4.6-7.8-6.3-12.6c-1.7-4.8-3.2-10.1-4.4-15.7c-0.6,1.3-1.2,2.8-2,4.5
		c-0.7,1.7-1.5,3.4-2.2,5.1c-0.7,1.7-1.4,3.3-2.1,4.9c-0.6,1.6-1.1,2.9-1.4,4.1c-0.3,1.1-0.4,2-0.3,2.5c0.1,0.6,0.6,0.7,1.3,0.4
		c0.7-0.3,1.1-0.3,1.3,0.1c0.2,0.4,0.1,0.9-0.2,1.6c-0.3,0.7-0.8,1.4-1.5,2.3c-0.7,0.8-1.6,1.6-2.7,2.2c-0.4,0.3-0.9,0.5-1.6,0.8
		c-0.7,0.2-1.3,0.4-1.9,0.5c-0.6,0.1-1.1,0-1.6-0.2c-0.4-0.2-0.7-0.6-0.7-1.2c0-1.6,0.5-3.8,1.4-6.7c0.9-2.9,2.1-6.1,3.6-9.7
		c1.5-3.6,3-7.3,4.8-11.2c1.7-3.9,3.4-7.7,4.9-11.3c1.6-3.7,2.9-7,4.1-10c1.2-3,2-5.5,2.4-7.3c0.2-0.9,0.6-1.3,1.3-1.1
		c0.7,0.1,1.4,0.5,2.2,1.2c0.8,0.6,1.4,1.4,2,2.3c0.6,0.9,0.8,1.6,0.7,2.2c-0.5,2.4-1.6,5.2-3.3,8.5c-1.7,3.2-3.7,6.4-5.9,9.6
		c2.3-0.5,4.7-1.3,7.1-2.6c2.4-1.2,4.7-2.7,6.9-4.3c2.2-1.7,4.3-3.4,6.2-5.3c1.9-1.9,3.6-3.7,5.1-5.5c1.4-1.8,2.6-3.5,3.4-5.1
		c0.8-1.6,1.3-2.9,1.3-3.9c0-0.5-0.2-1-0.5-1.5c-0.3-0.5-0.9-0.9-1.8-1.3c-0.9-0.4-2-0.7-3.5-0.9c-1.5-0.2-3.4-0.4-5.7-0.4
		c-1.4,0-3.1,0.2-5.2,0.6c-2,0.4-4.2,0.9-6.5,1.6c-2.3,0.7-4.7,1.5-7.2,2.3c-2.4,0.9-4.8,1.7-7,2.6c-2.2,0.9-4.2,1.8-6,2.7
		c-1.8,0.9-3.2,1.7-4.1,2.4c-0.4,0.3-0.9,0.4-1.5,0.3c-0.7-0.1-1.3-0.2-2-0.5c-0.7-0.3-1.4-0.7-2-1.1c-0.7-0.5-1.2-0.9-1.6-1.5
		c-0.4-0.5-0.6-1-0.6-1.5C76.2,172.4,76.5,171.9,77.2,171.5z"/>
	<path class="st0" d="M125.7,217.8c0-3.9,0.6-7.4,1.7-10.7c1.1-3.3,2.5-6,4.3-8.4c1.7-2.3,3.6-4.1,5.7-5.4c2.1-1.3,4.1-1.9,5.9-1.9
		c1.5,0,2.9,0.4,4.4,1.1c1.5,0.8,2.7,1.7,3.9,2.8c1.1,1.1,2,2.3,2.7,3.7c0.7,1.3,1.1,2.6,1.1,3.8c0,1.4-0.5,2.8-1.5,4.4
		c-1,1.6-2.3,3-4.1,4.4c-1.8,1.4-3.9,2.5-6.3,3.5c-2.4,0.9-5.1,1.5-8.1,1.6c0,0.4-0.1,0.8-0.1,1.2c0,0.4,0,0.8,0,1.3
		c0,2.6,0.5,4.6,1.6,5.9c1,1.3,2.3,2,3.9,2c2.7,0,5.2-0.7,7.5-2c2.3-1.3,4.2-3,5.7-5c0.5-0.7,0.9-1,1.1-0.9c0.2,0.1,0.3,0.3,0.2,0.8
		c0,0.5-0.2,1-0.4,1.7c-0.2,0.7-0.5,1.2-0.9,1.7c-0.5,0.8-1.3,1.6-2.2,2.4c-0.9,0.9-2,1.7-3.2,2.4c-1.2,0.7-2.5,1.3-3.9,1.9
		c-1.4,0.5-2.9,0.8-4.4,0.8c-2.2,0-4.1-0.4-5.9-1.2c-1.8-0.8-3.3-1.8-4.6-3.1c-1.3-1.3-2.3-2.7-3-4.2
		C126.1,220.7,125.7,219.2,125.7,217.8z M147.4,196.5c-0.5-0.3-1.4-0.1-2.5,0.5c-1.1,0.6-2.3,1.7-3.5,3.2c-1.2,1.5-2.4,3.4-3.4,5.7
		c-1.1,2.3-1.8,5.1-2.3,8.2c1.2-0.5,2.4-1.2,3.5-2.2c1.2-1,2.2-2.1,3.2-3.3c1-1.2,1.9-2.5,2.6-3.8c0.8-1.3,1.4-2.6,1.8-3.7
		c0.5-1.1,0.7-2.1,0.8-2.9C147.9,197.2,147.7,196.7,147.4,196.5z"/>
	<path class="st0" d="M168.8,175.3c0-0.5,0.2-1,0.7-1.6c0.5-0.5,1-1.1,1.8-1.6c0.7-0.5,1.5-0.9,2.2-1.3c0.8-0.4,1.5-0.6,2.2-0.6
		c0.7,0,1.3,0.1,1.8,0.4c0.5,0.3,0.7,0.8,0.7,1.6c0,1.3-0.2,3.1-0.7,5.2c-0.4,2.1-1,4.5-1.7,7.1c-0.7,2.6-1.5,5.3-2.4,8.2
		c-0.9,2.9-1.8,5.7-2.6,8.6c-0.9,2.8-1.7,5.5-2.4,8.1c-0.7,2.6-1.4,4.8-1.8,6.7c-0.5,1.9-0.7,3.5-0.8,4.6c-0.1,1.1,0.1,1.7,0.6,1.7
		c0.6,0,1.1-0.1,1.5-0.2c0.4-0.1,0.6-0.2,0.8-0.4c0.2-0.1,0.4-0.3,0.5-0.4c0.1-0.1,0.3-0.2,0.5-0.2c0.5,0,0.8,0.3,0.7,1
		c0,0.6-0.3,1.4-0.8,2.1c-0.5,0.8-1.1,1.5-1.8,2.1c-0.7,0.6-1.5,1-2.4,1c-0.6,0-1.3-0.2-2.1-0.7c-0.8-0.5-1.6-1.1-2.4-1.8
		c-0.7-0.7-1.4-1.6-1.9-2.5c-0.6-0.9-0.8-1.9-0.8-2.8c0-1.8,0.3-3.9,0.8-6.2c0.5-2.4,1.2-4.9,1.9-7.5c0.8-2.6,1.6-5.4,2.5-8.2
		c0.9-2.8,1.8-5.5,2.5-8.2c0.8-2.7,1.4-5.3,1.9-7.7C168.5,179.5,168.8,177.3,168.8,175.3z"/>
	<path class="st0" d="M177.9,196.4c0.9-1.5,2.1-2.7,3.5-3.8c1.4-1.1,2.9-2,4.5-2.7c1.6-0.7,3.2-1.3,4.8-1.7c1.6-0.4,3.1-0.6,4.6-0.6
		c1.2,0,2.3,0.3,3.5,0.8c1.1,0.6,2.1,1.3,3,2.3c0.9,1,1.5,2.1,2,3.4c0.5,1.3,0.8,2.8,0.8,4.3c0,2.8-0.3,5.4-0.9,7.8
		c-0.6,2.4-1.2,4.7-1.8,6.9c-0.7,2.2-1.3,4.3-1.8,6.3c-0.6,2-0.9,4.1-0.9,6.1c0,0.6-0.4,1-1.2,1.1c-0.8,0.1-1.6-0.1-2.5-0.6
		c-0.9-0.5-1.8-1.2-2.5-2.1c-0.8-1-1.2-2.2-1.2-3.6c0-0.1,0-0.3,0-0.5c0-0.2,0.1-0.4,0.1-0.6c-1.2,1.3-2.5,2.3-4,3.2
		c-1.5,0.8-3.2,1.3-5.2,1.3c-1.5,0-2.9-0.3-4.2-1c-1.2-0.6-2.3-1.4-3.1-2.3c-0.9-0.9-1.5-1.8-1.9-2.8c-0.4-1-0.7-1.9-0.7-2.6
		c0-1.4,0.6-2.7,1.9-3.9c1.2-1.2,2.9-2.2,5-3c2.1-0.8,4.6-1.4,7.4-1.8c2.8-0.4,5.8-0.5,8.9-0.3c0.5-1.8,1-3.6,1.4-5.3
		c0.4-1.7,0.7-3.3,0.8-4.7c0.1-1.4,0.1-2.5-0.1-3.3c-0.2-0.8-0.7-1.3-1.5-1.3c-1.5,0-3.2,0.8-5.3,2.3c-2.1,1.5-4.1,3.8-6.1,6.7
		c-0.5,0.8-1.3,1.1-2.2,1.1c-1-0.1-1.9-0.4-2.7-0.9c-0.9-0.5-1.5-1.2-2-2C177.6,197.7,177.5,197,177.9,196.4z M184.5,220
		c1.6,0,3.3-0.9,5.2-2.6c1.8-1.7,3.5-4.2,4.9-7.4c0-0.2,0.1-0.3,0.1-0.5c0-0.2,0.1-0.3,0.2-0.6c-2.1,0.2-3.9,0.6-5.6,1.4
		c-1.7,0.7-3.1,1.6-4.3,2.5c-1.2,0.9-2.1,1.8-2.7,2.8c-0.6,0.9-1,1.7-1,2.2c0,0.6,0.3,1.1,0.8,1.6C182.7,219.8,183.5,220,184.5,220z
		"/>
	<path class="st0" d="M205.8,227.1c0.7-1.5,1.5-3,2.4-4.7c1-1.7,2.1-3.4,3.4-5.2c-1.5-1.8-2.8-3.8-3.7-5.8c-0.9-2-1.4-4.1-1.4-6.2
		c0-1,0.4-1.9,1.3-2.7c0.9-0.8,1.8-1.5,2.8-1.9c1-0.5,1.9-0.6,2.8-0.6c0.9,0.1,1.3,0.6,1.3,1.4c0,1.6,0.2,3.1,0.5,4.7
		c0.4,1.5,0.8,3,1.5,4.5c1.9-2.4,3.9-4.8,6-7.1c2.1-2.3,4.2-4.5,6.2-6.5c2-2,4-3.9,5.9-5.5c1.9-1.7,3.6-3,5.2-4
		c0.7-0.4,1.2-0.7,1.5-0.7c0.3,0,0.4,0.1,0.3,0.4c-0.1,0.3-0.3,0.7-0.6,1.3c-0.4,0.6-0.8,1.1-1.4,1.7c-1.2,1.3-2.6,2.9-4.1,4.8
		c-1.6,1.9-3.2,4.1-4.9,6.5c-1.7,2.4-3.5,4.9-5.3,7.6c-1.8,2.7-3.5,5.3-5.1,8c2,2.8,4.2,5.2,6.6,7.2c2.4,2,4.6,3.5,6.6,4.5
		c0.6,0.2,0.9,0.4,0.9,0.6c0,0.2-0.1,0.3-0.3,0.4c-0.3,0.1-0.7,0.2-1.2,0.2c-0.5,0-1,0-1.6-0.1c-1.8-0.2-4-1-6.6-2.2
		c-2.6-1.3-5.2-3-7.8-5c-1.9,3.5-3.5,6.6-4.6,9.4c-0.4,1.1-1.1,1.6-2,1.6c-0.9-0.1-1.7-0.4-2.5-1.1c-0.8-0.7-1.5-1.5-1.9-2.5
		C205.5,228.8,205.4,227.9,205.8,227.1z"/>
</g>
<g>
	<g>
		<path class="st0" d="M64,234.6c0.6,0.8,0.8,1.6,0.7,2.3l-1.6-0.1c0-0.5,0-0.8-0.4-1.2c-0.6-0.7-1.7-0.9-2.7-0.1
			c-1.1,0.8-1.3,1.7-0.5,2.7c0.1,0.2,0.3,0.3,0.4,0.3l0.8-0.6l-0.7-0.8l1.2-0.9l1.7,2.1l-2.7,2c-0.7-0.1-1.6-0.6-2.2-1.4
			c-1.2-1.5-1.3-3.5,0.7-4.9C60.7,232.6,62.8,233,64,234.6z"/>
	</g>
	<g>
		<path class="st0" d="M67.1,238.7l1.3,1.4l-3,2.6c-1,0.8-1.1,1.4-0.6,1.9c0.5,0.5,1.1,0.5,2.1-0.3l3-2.6l1.2,1.3l-2.8,2.4
			c-1.8,1.6-3.3,1.7-4.7,0.2c-1.4-1.5-1.2-2.9,0.7-4.5L67.1,238.7z"/>
	</g>
	<g>
		<path class="st0" d="M73.4,245.2l1.4,1.3l-5.2,4.9l-1.4-1.3L73.4,245.2z"/>
	</g>
	<g>
		<path class="st0" d="M76.8,248.6l1.6,1.4c1.7,1.4,2.1,3.1,0.5,5c-1.7,1.9-3.6,1.7-5.1,0.4l-1.7-1.4L76.8,248.6z M74.6,254
			c0.8,0.7,1.7,0.9,2.8-0.4c1.1-1.2,0.7-2-0.1-2.7l-0.1-0.1L74.6,254L74.6,254z"/>
	</g>
	<g>
		<path class="st0" d="M83.4,254.1l3.8,2.7l-1,1.2l-2.2-1.6l-0.7,0.9l1.9,1.4l-1,1.2l-1.9-1.4l-0.8,1l2.3,1.7l-1,1.2l-3.9-2.8
			L83.4,254.1z"/>
	</g>
	<g>
		<path class="st0" d="M87.4,263c0.2,0.6,0.6,1.2,1,1.5c0.5,0.3,0.8,0.3,1,0c0.2-0.3,0-0.6-0.4-1.1l-0.5-0.8
			c-0.5-0.7-0.7-1.6-0.1-2.4c0.7-1,2.2-1.2,3.5-0.3c0.7,0.4,1.3,1.2,1.5,2.1l-1.5,0.4c-0.2-0.5-0.5-0.9-0.9-1.2
			c-0.4-0.3-0.7-0.3-0.9,0c-0.2,0.3,0.1,0.6,0.5,1.2l0.5,0.8c0.6,0.8,0.6,1.5,0.1,2.3c-0.7,1-2.2,1.3-3.7,0.3
			c-0.8-0.5-1.4-1.3-1.7-2.3L87.4,263z"/>
	</g>
	<g>
		<path class="st0" d="M98.7,269.4l0.3-5l1.8,1l-0.3,1.5c-0.1,0.5-0.2,1-0.3,1.6l0,0c0.4-0.4,0.8-0.7,1.3-1.1l1.2-1l1.8,0.9l-4.2,3
			l-1.2,2.1l-1.7-0.9L98.7,269.4z"/>
	</g>
	<g>
		<path class="st0" d="M104.6,271.1c1-2.1,2.8-2.7,4.6-1.9c1.8,0.8,2.5,2.5,1.5,4.6c-1,2.1-2.8,2.8-4.6,2
			C104.3,275,103.6,273.2,104.6,271.1z M108.9,273c0.5-1.2,0.4-2-0.4-2.4c-0.8-0.3-1.6,0.1-2.1,1.3c-0.5,1.2-0.4,2.1,0.4,2.4
			C107.6,274.7,108.4,274.2,108.9,273z"/>
	</g>
	<g>
		<path class="st0" d="M114.6,271.6l1.8,0.6l-1.3,3.6c-0.4,1.2-0.3,1.7,0.5,2c0.7,0.2,1.2-0.1,1.6-1.3l1.3-3.6l1.8,0.6l-1.2,3.4
			c-0.8,2.3-2.1,3-4,2.4c-1.9-0.6-2.5-2-1.7-4.3L114.6,271.6z"/>
	</g>
	<g>
		<path class="st0" d="M128.2,277.4l-1.9-0.4l0.4-1.5l5.6,1.3l-0.4,1.5l-1.9-0.4l-1.3,5.3l-1.9-0.4L128.2,277.4z"/>
	</g>
	<g>
		<path class="st0" d="M134.8,277.3l1.9,0.3l-0.4,2.6l2.1,0.3l0.4-2.6l1.9,0.3l-1.2,6.9l-1.9-0.3l0.5-2.7l-2.1-0.3l-0.5,2.7
			l-1.9-0.3L134.8,277.3z"/>
	</g>
	<g>
		<path class="st0" d="M147.1,285.9l-1-2.4l-0.7-0.1l-0.2,2.3l-1.9-0.2l0.6-7l2.7,0.2c1.6,0.1,2.9,0.8,2.7,2.5
			c-0.1,1-0.6,1.6-1.4,1.9l1.3,2.8L147.1,285.9z M145.5,281.9l0.7,0.1c0.8,0.1,1.2-0.2,1.2-0.8c0.1-0.6-0.3-0.8-1.1-0.9l-0.7-0.1
			L145.5,281.9z"/>
	</g>
	<g>
		<path class="st0" d="M152,282.7c0-2.3,1.4-3.6,3.4-3.5c2,0,3.4,1.4,3.3,3.6c0,2.3-1.4,3.6-3.4,3.6C153.3,286.3,152,285,152,282.7z
			 M156.8,282.8c0-1.3-0.5-2-1.4-2c-0.9,0-1.4,0.7-1.4,2c0,1.3,0.5,2.1,1.4,2.1C156.2,284.8,156.8,284,156.8,282.8z"/>
	</g>
	<g>
		<path class="st0" d="M161.3,279.3l1.9-0.2l0.3,3.8c0.1,1.2,0.5,1.7,1.2,1.6c0.8-0.1,1.1-0.5,1-1.8l-0.3-3.8l1.9-0.2l0.3,3.6
			c0.2,2.4-0.6,3.6-2.6,3.7c-2,0.2-3.1-0.9-3.3-3.2L161.3,279.3z"/>
	</g>
	<g>
		<path class="st0" d="M173.6,278c1-0.2,1.9,0.1,2.5,0.6l-0.8,1.3c-0.4-0.2-0.7-0.4-1.3-0.3c-1,0.1-1.6,1-1.4,2.3
			c0.2,1.3,0.9,1.9,2.2,1.7c0.2,0,0.4-0.1,0.5-0.2l-0.2-1l-1.1,0.2l-0.3-1.5l2.7-0.4l0.6,3.3c-0.5,0.5-1.3,1.1-2.3,1.2
			c-2,0.3-3.8-0.6-4.2-3C170.2,279.9,171.7,278.3,173.6,278z"/>
	</g>
	<g>
		<path class="st0" d="M179,277.3l1.9-0.4l0.6,2.5l2.1-0.5l-0.6-2.5l1.9-0.4l1.7,6.8l-1.9,0.4l-0.7-2.7l-2.1,0.5l0.7,2.7l-1.9,0.4
			L179,277.3z"/>
	</g>
	<g>
		<path class="st0" d="M191.8,274.1l1.9-0.6l2.1,2.4l0.8,0.9l0,0l0-1.2l0-3.1l1.9-0.6l2.4,6.6l-1.7,0.6l-0.7-1.9
			c-0.2-0.7-0.5-1.7-0.6-2.4l0,0l0,1.7l-0.1,2.5l-0.7,0.2l-1.8-1.9l-1.1-1.4l0,0c0.3,0.6,0.8,1.6,1.1,2.3l0.7,1.9l-1.7,0.6
			L191.8,274.1z"/>
	</g>
	<g>
		<path class="st0" d="M201.3,270.8l4.3-1.8l0.7,1.4l-2.5,1.1l0.5,1l2.2-0.9l0.7,1.4l-2.2,0.9l0.5,1.1l2.6-1.1l0.7,1.4l-4.4,1.9
			L201.3,270.8z"/>
	</g>
	<g>
		<path class="st0" d="M208.3,267.8l1.7-0.9l3,2l1.4,1.1l0,0c-0.4-0.6-1.1-1.5-1.5-2.2l-1-1.8l1.6-0.8l3.4,6.2l-1.7,0.9l-3-2
			l-1.4-1.1l0,0c0.5,0.7,1.1,1.5,1.5,2.2l1,1.8l-1.6,0.8L208.3,267.8z"/>
	</g>
	<g>
		<path class="st0" d="M217.9,266.7c-1.3-1.9-0.9-3.7,0.8-4.8c1.7-1,3.6-0.6,4.9,1.3c1.3,1.9,0.9,3.8-0.8,4.8
			C221.1,269.1,219.1,268.7,217.9,266.7z M221.9,264.3c-0.7-1.1-1.6-1.4-2.3-1c-0.7,0.4-0.8,1.3-0.1,2.4c0.7,1.1,1.6,1.5,2.3,1
			C222.6,266.3,222.6,265.3,221.9,264.3z"/>
	</g>
	<g>
		<path class="st0" d="M223.9,258.8l2.3-1.6c1.3-0.9,2.7-1.2,3.8,0.2c1.1,1.4,0.4,2.8-0.8,3.6l-0.7,0.5l1.4,1.8l-1.5,1.1
			L223.9,258.8z M228.1,259.9c0.6-0.4,0.7-0.9,0.3-1.4c-0.4-0.5-0.9-0.5-1.4,0l-0.6,0.5l1.2,1.5L228.1,259.9z"/>
	</g>
	<g>
		<path class="st0" d="M236.4,256.3l-1.5,1.3l0.7,1.3l-1.5,1.2l-3.1-6.7l1.8-1.5l6.5,3.9l-1.5,1.3L236.4,256.3z M235.2,255.5
			l-0.4-0.3c-0.6-0.4-1.3-0.9-1.9-1.3l0,0c0.4,0.6,0.8,1.4,1.1,2l0.2,0.4L235.2,255.5z"/>
	</g>
	<g>
		<path class="st0" d="M236,249.4l1.3-1.3l2.8,2.7c0.9,0.9,1.5,1,2,0.4c0.5-0.5,0.5-1.1-0.5-2l-2.8-2.7l1.3-1.3l2.7,2.5
			c1.8,1.7,1.9,3.1,0.5,4.5c-1.4,1.4-2.9,1.3-4.7-0.4L236,249.4z"/>
	</g>
	<g>
		<path class="st0" d="M246.5,246c0.7-0.1,1.3-0.4,1.6-0.8c0.4-0.4,0.4-0.7,0.1-0.9c-0.3-0.2-0.6,0-1.2,0.3l-0.9,0.4
			c-0.7,0.4-1.7,0.5-2.5-0.2c-0.9-0.8-1-2.2,0-3.4c0.5-0.6,1.4-1.1,2.3-1.2l0.3,1.5c-0.6,0.1-1,0.3-1.3,0.7
			c-0.3,0.3-0.4,0.7-0.1,0.9c0.3,0.2,0.6,0,1.3-0.3l0.8-0.4c0.9-0.4,1.7-0.4,2.4,0.2c0.9,0.8,1.1,2.2-0.1,3.5
			c-0.6,0.7-1.5,1.2-2.6,1.4L246.5,246z"/>
	</g>
	<g>
		<path class="st0" d="M247.4,237.5l2.9-3.6l1.3,0.9l-1.7,2.1l0.9,0.7l1.4-1.8l1.3,0.9l-1.4,1.8l1,0.8l1.8-2.2l1.3,0.9l-2.9,3.7
			L247.4,237.5z"/>
	</g>
</g>
</svg>
